-------------------------------------------------------------------------------
Test set: be.kdg.distrib.TestSkeletonFactory
-------------------------------------------------------------------------------
Tests run: 26, Failures: 0, Errors: 0, Skipped: 0, Time elapsed: 0.087 sec
